<?xml version="1.0" encoding="UTF-8"?>
<svg width="18px" height="16px" viewBox="0 0 18 16" version="1.1" xmlns="http://www.w3.org/2000/svg" xmlns:xlink="http://www.w3.org/1999/xlink">
    <!-- Generator: Sketch 41.2 (35397) - http://www.bohemiancoding.com/sketch -->
    <title>LinkedIn</title>
    <desc>Created with Sketch.</desc>
    <defs></defs>
    <g id="Page-1" stroke="none" stroke-width="1" fill="none" fill-rule="evenodd">
        <g id="Desktop-HD-Rekisteröityminen-1/2" transform="translate(-828.000000, -616.000000)" fill="#FFFFFF">
            <path d="M846,632 L842.021755,632 L842.021755,626.37536 C842.021755,624.903118 841.399459,623.89806 840.031044,623.89806 C838.98436,623.89806 838.402281,624.576295 838.13135,625.229942 C838.029751,625.464558 838.045626,625.791381 838.045626,626.118204 L838.045626,632 L834.104421,632 C834.104421,632 834.155221,622.036499 834.104421,621.130819 L838.045626,621.130819 L838.045626,622.836652 C838.278457,622.090798 839.537865,621.026318 841.547625,621.026318 C844.04104,621.026318 846,622.589742 846,625.95633 L846,632 L846,632 Z M830.118768,619.771275 L830.093368,619.771275 C828.823377,619.771275 828,618.940386 828,617.887174 C828,616.813472 828.847719,616 830.143109,616 C831.437441,616 832.233302,616.811424 832.258702,617.884101 C832.258702,618.937312 831.437441,619.771275 830.118768,619.771275 L830.118768,619.771275 L830.118768,619.771275 Z M828.454022,621.130819 L831.962371,621.130819 L831.962371,632 L828.454022,632 L828.454022,621.130819 L828.454022,621.130819 Z" id="LinkedIn"></path>
        </g>
    </g>
</svg>